…
    ## # A tibble: 2,010 x 7
    ##    model_id     algorithm      tpr     fpr model_rank model_id1   model_id2
    ##    <chr>        <chr>        <dbl>   <dbl>      <int> <chr>       <chr>    
    ##  1 1: StackedE… stackeden… 0       0                1 1: Stacked… _NULL    
    ##  2 1: StackedE… stackeden… 0       0                1 1: Stacked… _NULL    
    ##  3 1: StackedE… stackeden… 0.00357 0                1 1: Stacked… _NULL    
    ##  4 1: StackedE… stackeden… 0.00714 0                1 1: Stacked… _NULL    
    ##  5 1: StackedE… stackeden… 0.0107  0                1 1: Stacked… _NULL    
    ##  6 1: StackedE… stackeden… 0.0143  0                1 1: Stacked… _NULL    
    ##  7 1: StackedE… stackeden… 0.0214  0                1 1: Stacked… _NULL    
    ##  8 1: StackedE… stackeden… 0.025   0.00129          1 1: Stacked… _NULL    
    ##  9 1: StackedE… stackeden… 0.0286  0.00129          1 1: Stacked… _NULL    
    ## 10 1: StackedE… stackeden… 0.0321  0.00129          1 1: Stacked… _NULL    
    ## # … with 2,000 more rows
…
